73
h#
pau
brth
z
y
kcl
pcl
nx
aa
aa+1
ae
ae+1
ah
ah+1
ao
ao+1
aw
aw+1
ax
axr
ay
ay+1
b
bcl
ch
d
dcl
dh
dx
eh
eh+1
el
em
en
eng
er
er+1
ey
ey+1
f
g
gcl
hh
hv
ih
ih+1
iy
iy+1
jh
k
l
m
n
ng
ow
ow+1
oy
oy+1
p
q
r
s
sh
t
tcl
th
uh
uh+1
uw
uw+1
v
w
zh
80
a ax 0 1 ah 0 1 ey 0 1 ey+1 0 1 //
Affairs ax 0 1 f 1 2 eh+1 2 3 r 3 4 z 4 5 //
afternoon ae+1 0 1 ae 0 1 f 1 2 d 2 4 tcl 2 3 t 3 4 ax 4 5 er 4 6 axr 4 6 r 5 6 n 6 7 uw+1 7 8 n 8 9 //
against ax 0 1 gcl 1 2 g 2 3 eh+1 3 4 ih+1 3 4 n 4 5 s 5 7 tcl 5 6 s 6 7 tcl 7 9 tcl 7 8 t 8 9 //
Alfa ae+1 0 1 l 1 2 f 2 3 ax 3 4 //
and ae 0 1 ae+1 0 1 n 1 2 n 1 4 dcl 2 3 dcl 2 4 d 3 4 //
announced ax 0 1 n 1 2 aw+1 2 3 n 3 4 s 4 6 tcl 4 5 s 5 6 dcl 6 8 dcl 6 7 d 7 8 //
annual ae+1 0 1 n 1 2 nx 1 2 y 2 3 uw 3 4 ax 4 5 el 4 6 l 4 6 l 5 6 //
are aa 0 1 aa+1 0 1 r 1 2 //
Association ax 0 1 s 1 2 ow+1 2 3 ow 2 3 s 3 4 iy 4 5 ey+1 5 6 sh 6 7 ax 7 8 en 7 9 n 8 9 //
Attorney ax 0 1 tcl 1 2 t 2 3 ah+1 3 4 er+1 3 5 r 4 5 n 5 6 nx 5 6 iy 6 7 //
by bcl 0 1 b 1 2 ay 2 3 ay+1 2 3 //
cars kcl 0 1 k 1 2 aa+1 2 3 aa 2 3 r 3 4 z 4 5 //
charges tcl 0 1 ch 1 2 aa+1 2 3 r 3 4 dcl 4 5 jh 5 6 ax 6 7 z 7 8 //
commit kcl 0 1 k 1 2 ax 2 3 em 2 4 m 3 4 ih+1 4 5 tcl 5 7 tcl 5 6 t 6 7 //
complaints kcl 0 1 k 1 2 ax 2 3 em 2 4 m 3 4 pcl 4 5 p 5 6 l 6 7 ey+1 7 8 n 8 9 tcl 9 11 tcl 9 10 t 10 11 s 11 12 //
conflict kcl 0 1 k 1 2 aa+1 2 3 ax 2 3 n 3 4 f 4 5 l 5 6 ih 6 7 ax 6 7 ih+1 6 7 kcl 7 9 kcl 7 8 k 8 9 tcl 9 11 tcl 9 10 t 10 11 //
conspiracy kcl 0 1 k 1 2 ax 2 3 en 2 4 n 3 4 s 4 6 tcl 4 5 s 5 6 pcl 6 7 p 7 8 ih+1 8 9 r 9 10 ax 10 11 s 11 12 iy 12 13 //
consumer kcl 0 1 k 1 2 ax 2 3 en 2 4 n 3 4 s 4 6 tcl 4 5 s 5 6 uw+1 6 7 m 7 8 ax 8 9 er 8 10 axr 8 10 r 9 10 //
Council kcl 0 1 k 1 2 aw+1 2 3 n 3 4 s 4 6 tcl 4 5 s 5 6 ax 6 7 el 6 8 l 7 8 //
Criminal kcl 0 1 k 1 2 r 2 3 ih+1 3 4 m 4 5 ax 5 6 en 5 7 n 6 7 nx 6 7 el 7 9 ax 7 8 l 8 9 //
director dcl 0 1 d 1 2 ay 2 3 ih 2 3 r 3 4 eh+1 4 5 kcl 5 7 kcl 5 6 k 6 7 tcl 7 8 dcl 7 9 t 8 10 d 9 10 ax 10 11 er 10 12 axr 10 12 r 11 12 //
disproportionate dcl 0 1 d 1 2 ih+1 2 3 ih 2 3 s 3 4 pcl 4 5 p 5 6 r 6 7 ax 7 8 pcl 8 9 p 9 10 ow+1 10 11 r 11 12 sh 12 13 ax 13 14 en 13 15 n 14 15 nx 14 15 ih 15 16 ax 15 16 tcl 16 18 tcl 16 17 t 17 18 //
endsil h# 0 1 nil 0 2 h# 1 2 nil 1 2 //
executive ih 0 1 ax 0 1 gcl 1 2 g 2 3 z 3 4 eh+1 4 5 kcl 5 6 k 6 7 y 7 8 ax 8 9 uw 8 9 dx 9 11 tcl 9 10 t 10 11 ih 11 12 ax 11 12 v 12 13 //
followed f 0 1 aa+1 1 2 l 2 3 ow 3 4 dcl 4 6 dcl 4 5 d 5 6 //
following f 0 1 aa+1 1 2 l 2 3 ow 3 4 ih 4 5 ax 4 5 ng 5 6 //
for f 0 1 ao 1 2 ao+1 1 2 r 2 3 //
foreign f 0 1 ao+1 1 2 r 2 3 ih 3 4 ax 3 4 n 4 5 //
former f 0 1 ao+1 1 2 r 2 3 m 3 4 ax 4 5 er 4 6 axr 4 6 r 5 6 //
General dcl 0 1 jh 1 2 eh+1 2 3 n 3 4 nx 3 4 ax 4 5 er 4 6 axr 4 6 r 5 6 ax 6 7 el 6 8 l 7 8 //
generating dcl 0 1 jh 1 2 eh+1 2 3 n 3 4 nx 3 4 ax 4 5 er 4 6 axr 4 6 r 5 6 ey+1 6 7 ey 6 7 dx 7 9 tcl 7 8 t 8 9 ih 9 10 ax 9 10 ng 10 11 //
Gold gcl 0 1 g 1 2 ow+1 2 3 ow 2 3 l 3 4 dcl 4 6 dcl 4 5 d 5 6 //
Here hh 0 1 iy+1 1 2 iy 1 2 r 2 3 //
include ih 0 1 ax 0 1 n 1 2 ng 1 2 kcl 2 3 k 3 4 l 4 5 uw+1 5 6 dcl 6 8 dcl 6 7 d 7 8 //
indicates ih+1 0 1 n 1 2 dcl 2 3 d 3 4 ax 4 5 kcl 5 6 k 6 7 ey+1 7 8 ey 7 8 tcl 8 10 tcl 8 9 t 9 10 s 10 11 //
indictments ih 0 1 ax 0 1 n 1 2 dcl 2 3 d 3 4 ay+1 4 5 tcl 5 7 tcl 5 6 t 6 7 m 7 8 ax 8 9 en 8 10 n 9 10 tcl 10 12 tcl 10 11 t 11 12 s 12 13 //
interest ih+1 0 1 n 1 2 nx 1 4 tcl 2 3 t 3 4 ax 4 5 er 4 6 axr 4 6 r 4 6 r 5 6 ih 6 7 ax 6 7 eh 6 7 s 7 8 tcl 8 10 tcl 8 9 t 9 10 //
James dcl 0 1 jh 1 2 ey+1 2 3 ey 2 3 m 3 4 z 4 5 //
Justice dcl 0 1 jh 1 2 ah+1 2 3 s 3 4 d 4 6 tcl 4 5 t 5 6 ih 6 7 ax 6 7 s 7 8 //
larceny l 0 1 aa+1 1 2 r 2 3 s 3 4 ax 4 5 en 4 6 n 5 6 nx 5 6 iy 6 7 //
law l 0 1 ao+1 1 2 ao 1 2 //
led l 0 1 eh+1 1 2 eh 1 2 dcl 2 4 dcl 2 3 d 3 4 //
lemon l 0 1 eh+1 1 2 m 2 3 ax 3 4 en 3 5 n 4 5 //
Massachusetts m 0 1 ae+1 1 2 ae 1 2 s 2 3 ax 3 4 tcl 4 5 ch 5 6 uw+1 6 7 s 7 8 ih 8 9 ax 8 9 tcl 9 11 tcl 9 10 t 10 11 s 11 12 //
number n 0 1 ah+1 1 2 m 2 3 bcl 3 4 b 4 5 ax 5 6 er 5 7 axr 5 7 r 6 7 //
of ah 0 1 ax 0 1 ah+1 0 1 v 1 2 //
other ah+1 0 1 dh 1 2 ax 2 3 er 2 4 axr 2 4 r 3 4 //
pack pcl 0 1 p 1 2 ae+1 2 3 ae 2 3 kcl 3 5 kcl 3 4 k 4 5 //
Paula pcl 0 1 p 1 2 ao+1 2 3 l 3 4 ax 4 5 //
Peugeot pcl 0 1 p 1 2 y 2 3 uw 3 4 zh 4 5 ow+1 5 6 //
Range r 0 1 ey+1 1 2 ey 1 2 n 2 3 dcl 3 4 jh 4 5 //
representative r 0 1 eh+1 1 2 eh 1 2 pcl 2 3 p 3 4 r 4 5 ih 5 6 ax 5 6 z 6 7 eh+1 7 8 n 8 9 nx 8 11 tcl 9 10 t 10 11 ax 11 12 dx 12 14 tcl 12 13 t 13 14 ih 14 15 ax 14 15 v 15 16 //
Retailer r 0 1 iy+1 1 2 tcl 2 3 t 3 4 ey+1 4 5 ey 4 5 l 5 6 l 6 7 ax 7 8 er 7 9 axr 7 9 r 8 9 //
Romeo r 0 1 ow+1 1 2 m 2 3 iy 3 4 ow+1 4 5 ow 4 5 //
Rover r 0 1 ow+1 1 2 v 2 3 ax 3 4 er 3 5 axr 3 5 r 4 5 //
says s 0 1 eh+1 1 2 eh 1 2 z 2 3 //
Secretary s 0 1 eh+1 1 2 kcl 2 3 k 3 4 r 4 5 ih 5 6 ax 5 6 tcl 6 7 t 7 8 eh+1 8 9 eh 8 9 r 9 10 iy 10 11 //
several s 0 1 eh+1 1 2 v 2 3 ax 3 4 er 3 5 axr 3 5 r 3 5 r 4 5 ax 5 6 el 5 7 l 6 7 //
Shannon sh 0 1 ae+1 1 2 n 2 3 nx 2 3 ax 3 4 en 3 5 n 4 5 //
sil pau 0 1 nil 0 1 //
six s 0 1 ih+1 1 2 ih 1 2 kcl 2 3 k 3 4 s 4 5 //
some s 0 1 ah 1 2 ax 1 2 ah+1 1 2 m 2 3 //
state s 0 1 tcl 1 2 t 2 3 ey+1 3 4 ey 3 4 tcl 4 6 tcl 4 5 t 5 6 //
Sterling s 0 1 tcl 1 2 t 2 3 ah+1 3 4 er+1 3 5 r 4 5 l 5 6 ih 6 7 ax 6 7 ng 7 8 //
stories s 0 1 tcl 1 2 t 2 3 ao+1 3 4 r 4 5 iy 5 6 z 6 7 //
survey s 0 1 ah+1 1 2 er+1 1 3 ax 1 2 r 2 3 v 3 4 ey 4 5 ey+1 4 5 //
tax tcl 0 1 t 1 2 ae+1 2 3 ae 2 3 kcl 3 4 k 4 5 s 5 6 //
term tcl 0 1 t 1 2 ah+1 2 3 er+1 2 4 ah 2 3 er 2 4 r 3 4 m 4 5 //
that dh 0 1 ae 1 2 ae+1 1 2 tcl 2 4 tcl 2 3 t 3 4 //
the dh 0 1 ax 1 2 iy 1 2 iy+1 1 2 //
this dh 0 1 ih 1 2 ax 1 2 ih+1 1 2 s 2 3 //
to tcl 0 1 t 1 2 uw 2 3 uw+1 2 3 //
today tcl 0 1 t 1 2 uw 2 3 ax 2 3 dcl 3 4 d 4 5 ey+1 5 6 //
Training tcl 0 1 t 1 2 r 2 3 ey+1 3 4 n 4 5 nx 4 5 ih 5 6 ax 5 6 ng 6 7 //
violations v 0 1 ay+1 1 2 ay 1 2 ax 2 3 el 2 4 l 3 4 ey+1 4 5 sh 5 6 ax 6 7 en 6 8 n 7 8 z 8 9 //
was w 0 1 ah 1 2 ax 1 2 ah+1 1 2 z 2 3 //
we're w 0 1 iy 1 2 iy+1 1 2 r 2 3 //
you y 0 1 uw 1 2 uw+1 1 2 //
Yugo y 0 1 uw+1 1 2 gcl 2 3 g 3 4 ow 4 5 //
